[2013-06-06 22:37:22] Most popular updated
[2013-06-06 22:37:50] Most popular updated
[2013-06-06 22:45:21] Most popular updated
[2013-06-06 22:46:33] Most popular updated
[2013-06-06 22:52:22] Most popular updated
[2013-07-01 16:52:49] Newsletter queue generated, 1 emails added (0.145s)
[2013-07-01 17:11:31] Newsletter queue generated, 1 emails added (0.147s)
[2013-07-01 18:04:07] Newsletter queue generated, 1 emails added (0.216s)
[2013-07-01 18:04:55] Newsletter queue generated, 1 emails added (0.104s)
[2013-08-07 01:33:06] "Bought together" updated, 1576 pairs stored (117.456s)
[2013-08-07 01:42:49] "Bought together" updated, 1497 pairs stored (95.653s)
[2013-08-07 22:37:53] Newsletter queue generated, 500 emails added (23.18s)
[2013-08-07 22:42:57] Newsletter queue generated, 500 emails added (20.483s)
[2013-08-07 22:53:40] Newsletter queue generated, 500 emails added (2.181s)
[2013-08-07 22:54:12] Newsletter queue generated, 500 emails added (1.486s)
[2013-08-07 22:54:29] Newsletter queue generated, 500 emails added (1.465s)
[2013-08-07 22:54:49] Newsletter queue generated, 500 emails added (1.563s)
[2013-08-07 22:55:56] Newsletter queue generated, 500 emails added (18.774s)
[2013-08-07 23:03:39] Newsletter queue generated, 300 emails added (9.275s)
[2013-08-07 23:13:36] Newsletter queue generated, 500 emails added (10.254s)
[2013-08-10 00:36:25] "Bought together" updated, 1497 pairs stored (96.19s)
[2013-08-10 00:42:29] "Bought together" updated, 1497 pairs stored (102.984s)
[2013-08-12 21:31:16] Newsletter queue generated, 500 emails added (1.949s)
[2013-08-12 21:34:35] Newsletter queue generated, 107 emails added (1.495s)
[2013-08-12 21:38:55] Newsletter queue generated, 107 emails added (0.904s)
[2014-06-03 10:44:11] Newsletter queue generated, 51 emails added (5.214s)
